<svg mapsvg:geoViewBox="-90.125247 14.450692 -87.683841 13.152442" version="1.1" viewBox="0 0 500 272.1" xmlns="http://www.w3.org/2000/svg" xmlns:mapsvg="http://mapsvg.com">
	<path id="SV-AH" d="m64.38 81.51 1.578 0.7512 1.572 0.7513 1.654 1.238 0.8649 2.014 0.7828-0.0379 0.7197 0.9912h3.51l1.496 0.423 2.747-0.101 1.717 0.0694 0.6692 0.7134 1.099-0.0884 0.7134 3.447 0.3978 0.5304 4.072 2.14 0.6187 0.6376 0.3473 0.947-0.3346 4.098-3.17 4.363-0.5177 3.46-1.269 2.191 0.1263 1.648-0.2462 0.9722-2.336 3.485-1.143 0.2778-0.6376-0.8712-1.844-0.5114-0.4609-0.7007-1.585 2.311-1.932 0.9659-2.128 0.2147-0.7386 0.7955 1.395 5.719 1.553 2.784 0.1957 0.8649-2.065 3.567-2.077 1.755-0.8333 1.092-0.7197 2.885-0.02526 1.244 0.8712 3.915 1.212 3.479-2.658 0.2652-0.6123 0.5745-0.2399 3.144-1.591 3.649 0.0442 2.058-1.143 2.128-1.414 5.745-0.9785 1.844-2.93 0.4167-1.2-0.1389-2.273-2.134-1.661-0.9659-2.822-1.042-1.054-1.408-4.521-3.927-0.7449 0.0631-1.193 1.124-1.219 0.2084-2.437 4.274-1.414 0.7955-0.827 1.547-1.781 0.8396-1.597-1.155-1.591-0.4104-5.631-2.848-7.569-3.321-0.9659-0.524-0.05681-0.4041 0.5114 0.4672 2.393 0.4041 1.705 1.225 2.557 0.6376-0.221-0.5808-0.6313-0.3473-1.484 0.1705-1.017-0.6944-0.5681-0.5872 0.3409-0.4608-1.143-0.1768-0.625 0.1136-1.534-1.395-1.307 0.1768-0.05682 0.5808-0.2841 0.0568-6.887-3.081-0.9659-0.1768-1.307-0.8144 0.1705-0.2904-0.3409-0.4672-1.256 0.2904-6.199-2.563 1.263-0.3978 2.197 1.08 0.7954-0.1831 1.263-1.717 0.3599-1.168 0.8965-0.101 0.3662-0.7639-0.2084-0.524-1.143-0.2336-1.957-3.492-1.541 0.4483-0.4357-0.5745 0.3094-4.003 0.4735-0.9533 0.543-0.7449 0.6502-0.5304-0.1263-0.827 0.4862-0.3725-1.067-4.527 1.863-1.446 1.061-1.231 1.357-2.841 0.4925-0.12 0.7702-1.073 0.6502-1.888 2.62-0.7449 0.2273-0.606 0.2778-0.7513 0.3473-0.4483 4.072-0.6629 1.515-1.048 0.7828-1.477-0.6565-2.671 0.08838-0.3978 1.282-0.5176 0.3031-0.8586-0.07576-2.538 1.054 0.0821 0.3915-0.5934 1.825-0.6692 1.149-0.505 0.2147-0.7513 1.244-1.08 1.983-0.7134 0.3662-0.4862 0.7512-0.12 1.471-0.2778 0.9154-1.099 2.323-0.9659 0.9028-1.042-0.4799-1.042 0.1515-0.2715 0.4104 0.2526 1.503-0.2778 1.983-1.187 0.827-1.642 0.9975-0.1894 0.2462-1.181 0.5051-0.7639 3.391-1.471 1.793-4.016-0.1073-0.7576 0.8775-0.3788 0.1705-0.625 0.7512-0.6692 4.23-0.341 1.054 0.4609h0.9343l0.7323-0.4862 1.061-1.629 0.9343-0.7765 1.597-0.2904 1.995-0.8775 1.376-0.019 0.4293-0.3409z" title="Ahuachapán"/>
	<path id="SV-CA" d="m306.5 90.6 4.3 3.271 1.061 0.0442 1.471-0.9154 1.244 0.2147 2.197 2.33 1.831 3.056 0.9091 0.4546 5.618-0.9154 2.103 0.2715 0.6439 0.1578 3.384 1.926 2.008 2.096 0.0442 1.118-2.046 3.435-0.8649 3.321 0.6313 1.446-0.6944 1.427 3.321 6.704 0.2841 1.307-0.3978 1.477 0.3536 1.332 0.8775 0.2778-0.9722 2.134 0.1957 2.065-0.928 1.806 0.2084 2.551-2.551 2.715-0.5746 0.9533-0.0126 0.7386 0.6818 1.679-0.2462 1.408-0.9912 1.32-0.3346 1.01-1.244 0.5934-0.7007 1.522-0.0631 1.32 1.124 2.103-0.1452 0.8838-0.4988 0.2336-0.9091-1.118-0.5997-0.0821-1.225 0.5492-0.9217-0.0631-1.503 0.5618-1.831 0.0947-1.143-0.4672-0.8207 0.4735-3.713 0.0379-0.606-1.844-0.6818-0.2715-0.9028-0.9154 0.341-2.412-2.57 0.0189-1.717-0.6629-2.027-1.465-2.904-0.2273-1.629-1.048-0.2273-1.13-1.806-0.6629-0.5114 0.1263-1.452 1.313h-3.113l-1.25-0.8965-3.245 1.004-1.383-0.442-1.061 0.5304-0.5745-0.3473-0.9849-1.964-0.3852 0.6692-0.3914 0.1136-1.515-0.6187-0.8901 0.0947-1.465-0.5114-0.8838 0.3536-0.625 1.035-1.408-0.3788-1.553 0.4167-4.912 2.854-2.128 0.1136-2.532-0.4862-1.168 0.12-1.452-0.524-3.599 0.3662-0.8965 0.6188-1.983 2.462-0.4925 0.101h-0.5618l-0.726-0.4546-0.8838-1.553-4.072-3.391-1.654-0.5934-1.572 0.2904-0.7702-0.1642-0.4924-2.734-0.8649-0.8712-1.054-0.4925-0.4293-0.6187 0.1136-1.206-0.6881-2.519-2.058-1.56-1.206-1.326-0.5366-0.1578-1.294 0.3283-1.679-0.947-3.308-2.563-1.496-1.831-0.3094 6e-3 0.0189-2.961 0.4924-2.267 3.87-3.744 2.999-5.612 1.339 0.726 0.3473 0.8586-0.1326 0.6376 0.5871 0.1263 1.661 1.383 0.2462-0.0253-0.0316-0.5682-0.5556-1.073-0.5871-0.4862 0.9091-1.073 1.743-0.7954 0.6314 0.0758 0.0631 0.5934 0.5492-0.0505-0.2399 0.5682 0.3662 0.2273 0.7386-0.2715 1.654 0.1768 1.086 0.6439 2.93-0.12 1.206-0.726 1.585-0.4167 0.6124 0.4672 1.711-1.357 1.301-0.5176 0.606-1.496 2.065-0.2399 0.1957 0.2336-0.5176 1.231 1.332-0.7512 1.989-0.3031 1.635-2.071 0.7197-0.1957 0.9091-1.042 0.1136 0.9849 0.4104 0.2715 2.45-1.313 0.4924 0.0253 0.3725 0.4104 0.4798-0.0631 1.162-0.9154 3.618-1.907 0.6376-0.5808 0.7007-1.32 2.046-0.8396 0.8396-1.017 2.121-0.4104 2.57-0.0758 8.46-2.709 0.2652-0.8649 1.351 0.8207 0.6313-0.1452 1.97-1.402 1.736 0.6692 0.7702-0.726 2.027 0.2841 0.7197-0.9154z" title="Cabañas"/>
	<path id="SV-CH" d="m201.7 23.91 3.473-0.2715 6.319-1.673 0.9975 0.0694 1.762 1.433 5.436 2.342 1.882 0.1389 2.563 1.774 0.928 2.071 0.543 3.908-1.294 2.33 0.5304 1.155 7.601 4.836 3.252 5.348-0.0505 0.8775-0.7449 0.8397 0.4672 0.8901 1.837 0.3788 2.216 1.736 5.801 0.0947 3.971-0.2904 2.065 2.425 2.974 1.364 2.791 0.726 1.143 0.8207 2.481 6.528 2.797 4.615 3.877 8.731 1.654 1.035 1.736 0.1642 4.028-0.423 4.881-1.086 1.263-0.0379 1.244 0.4672 2.904 2.829 3.258 5.222 1.231 1.414 4.666 4.514 1.547 0.9028-0.2652 0.8649-8.46 2.709-2.57 0.0758-2.121 0.4104-0.8396 1.017-2.046 0.8396-0.7007 1.32-0.6376 0.5808-3.618 1.907-1.162 0.9154-0.4798 0.0631-0.3725-0.4104-0.4924-0.0253-2.45 1.313-0.4104-0.2715-0.1136-0.9849-0.9091 1.042-0.7197 0.1957-1.635 2.071-1.989 0.3031-1.332 0.7512 0.5177-1.231-0.1957-0.2336-2.065 0.2399-0.606 1.496-1.301 0.5176-1.711 1.357-0.6123-0.4672-1.585 0.4167-1.206 0.726-2.93 0.12-1.086-0.6439-1.654-0.1768-0.7386 0.2715-0.3662-0.2273 0.2399-0.5682-0.5492 0.0505-0.0631-0.5934-0.6313-0.0758-1.743 0.7954-0.9091 1.073 0.5872 0.4862 0.5556 1.073 0.0316 0.5682-0.2462 0.0253-1.661-1.383-0.5871-0.1263 0.1326-0.6376-0.3473-0.8586-1.339-0.726-2.292-0.6313-0.1957 1.048 0.3852 1.004-0.8649-0.3094-0.2589 0.7639-0.6755 0.5934-0.3346-0.3851-0.9154-0.202 0.5746-1.149-0.7323 0.1326-0.221-0.3031 0.7702-0.3031-0.0884-0.2336-1.023 0.1642-0.7576 1.061-0.5934-0.1136-0.7576 0.2904-0.0631 0.5492 2.406 0.3536 0.7007 0.3599-0.1768 0.9975 0.947 2.576-0.322 0.202-1.458-2.204h-0.9028l-0.6502 1.932-1.155 0.947 0.6314-2.21-0.5808-1.219-0.3725-0.1515-1.282 1.957 0.4862-2.62-1.326-1.073-0.5492-1.357 0.1515-0.4546-1.029-0.1957-0.6818-0.8586-6e-3 -0.5304-0.3536-0.1831-1.724 1.515 0.7765-1.458 0.0758-1.427-0.5114-0.8838-1.111 0.0568-0.1957-0.2273 0.9659-1.017 0.3851-1.345-0.9975-1.282-1.187 0.4734-0.726-0.2841 1.357-0.8649 6e-3 -0.6124-0.5934-0.3599 0.543-0.8081-0.0821-0.3851-1.086 0.322-0.3536 0.3978-1.054-0.5114-0.1957 0.8523-0.3157 0.1452-0.4799-0.9975-1.275 0.6818-0.9343-0.2462 0.0568-0.4862 1.515-0.6565 0.3094-1.951 0.2841-0.2778 0.6565-0.0884 0.524 0.5934 1.118 0.4357 0.3662-0.1705-0.5746-0.9343 0.0821-0.524-1.244-1.143-0.2968 0.0189-0.2589 0.5304-0.6123-0.2715 0.442-0.7702-0.442-0.3094 0.0379-1.389-0.2715-0.1073-0.1578 0.6944-0.827 0.1768 0.4546 1.111-2.57 0.1073-0.2084-0.4104 1.313-1.61-2.305 0.2084 0.8081-1.168 1.004-0.5618-0.4104-0.3536-1.49 0.1326 0.1705-1.376-1.244 1.294-0.505-0.9975-0.3851-0.0126-1.181-0.947-0.4988-0.0568-0.9533 0.8144-1.187-0.423-0.3283 0.8144 0.9154 1.023-0.3725 0.4798-0.9217-0.4798-0.5998-0.7071-0.8649-0.1957-0.6502-0.928-1.017-0.5872 0.0316-1.13-1.85-1.705-0.4798-1.017-0.5872-0.0631-0.9217 0.6755-0.423 0.7197-0.5618 0.202 0.2399-1.143-0.9722 0.4357-0.4672 1.256-1.351 0.5366-1.111 2.039-1.294 0.0442-1.212 0.423-0.2715-0.7639-1.458-1.326 0.322-1.2-0.2652-1.035-0.8965-0.7512-0.5114-0.0253-1.762 0.928-1.421 1.528-1.9 0.7386-0.7071 0.1073-1.938-1.339-3.574-0.5997-0.9091 0.3852-0.3725 1.118-2.084 0.5492-0.9028-0.3283-0.9154 1.124-0.5872-0.442-0.5872-1.61-0.8081-0.4167-0.524 0.101-0.6629 0.7007-0.7765-0.1263-1.225 0.5492-0.7386-0.0505-0.3094-0.4293-0.442-3.119-0.7449-0.5618-0.7828 0.0316-2.128 0.3283-2.431 2.361-2.084 0.9343-1.118 6e-3 -1.174-0.6187-0.7449 0.1705-0.5682 0.7702-0.2084 1.591-0.9912 1.023-0.2084 1.427-0.322 0.1452-1.282-0.7197-1.56 0.6123-2.311-0.5618-2.709 0.4609-1.73-1.174-1.806-0.1389-0.4988-0.6376 0.322-2.349-0.5366-1.806 0.6881-0.8838-0.4546-1.957 0.202-1.162 0.7954-0.6124 0.4294-0.9722 1.2-0.8396-0.0695-1.099 1.793-0.5934 0.6502-0.9217-0.1515-2.014-0.4546-1.301-0.7765-0.5745 0.1389-0.4735 0.8396-0.7891 0.5681-1.345 2.494-0.4356 3.637-3.245 0.0884-0.9154 0.8965-0.3473 0.0442-1.585 0.7197-1.181 3.024-0.3788 1.042 0.1578 1.136-0.2715 0.6692-0.6565 2.071 0.0821 1.736-1.25 0.5366-3.422-0.7765-2.443 0.9154-2.557-0.202-0.7197-0.846-1.042-0.0316-0.8965-0.5176-0.9028 0.0884-1.105 0.9849-0.625 1.427 0.2084 1.446-1.073 0.7828 0.1957 0.6124-0.2589 1.408 0.6439 3.1-1.888 1.326-1.831-0.1263-0.7702 0.3599-0.423-0.3094-0.7576 0.1136-2.001 1.048-1.13 0.8207-1.667 0.0821-1.458 0.4672-1.035-0.2715-1.597 0.9091-1.067 0.3978-1.086-0.2336-0.6881-1.029-0.9722-8.1-5.852-2.589-4.085-8.46-9.059-0.6692-0.3157 0.1957-0.2841 3.833 3.416 6.742 3.403 8.062 2.096 7.146 0.4609 3.523 1.686 6.275 5.593 4.502 1.307z" title="Chalatenango"/>
	<path id="SV-CU" d="m201.5 84.11 0.423-0.7197 0.9217-0.6755 0.5872 0.0631 0.4798 1.017 1.85 1.705-0.0316 1.13 1.017 0.5871 0.6502 0.928 0.8649 0.1957 0.5998 0.7071 0.9217 0.4798 0.3725-0.4798-0.9154-1.023 0.3283-0.8144 1.187 0.423 0.9533-0.8144 0.4988 0.0568 1.181 0.947 0.3851 0.0126 0.505 0.9975 1.244-1.294-0.1705 1.376 1.49-0.1326 0.4104 0.3536-1.004 0.5618-0.8081 1.168 2.305-0.2084-1.313 1.61 0.2084 0.4104 2.57-0.1073-0.4546-1.111 0.827-0.1768 0.1578-0.6944 0.2715 0.1073-0.0379 1.389 0.442 0.3094-0.442 0.7702 0.6123 0.2715 0.2589-0.5304 0.2968-0.0189 1.244 1.143-0.0821 0.524 0.5746 0.9343-0.3662 0.1705-1.118-0.4357-0.524-0.5934-0.6565 0.0884-0.2841 0.2778-0.3094 1.951-1.515 0.6565-0.0568 0.4862 0.9343 0.2462 1.275-0.6818 0.4799 0.9975 0.3157-0.1452 0.1957-0.8523 1.054 0.5114 0.3536-0.3978 1.086-0.322 0.0821 0.3851-0.543 0.8081 0.5934 0.3599-6e-3 0.6123-1.357 0.8649 0.726 0.2841 1.187-0.4735 0.9975 1.282-0.3851 1.345-0.9659 1.017 0.1957 0.2273 1.111-0.0568 0.5114 0.8838-0.0758 1.427-0.7765 1.458 1.724-1.515 0.3536 0.1831 6e-3 0.5304 0.6818 0.8586 1.029 0.1957-0.1515 0.4546 0.5492 1.357 1.326 1.073-0.4862 2.62 1.282-1.957 0.3725 0.1515 0.5808 1.219-0.6314 2.21 1.155-0.947 0.6502-1.932h0.9028l1.458 2.204 0.322-0.202-0.947-2.576 0.1768-0.9975-0.7007-0.3599-2.406-0.3536 0.0631-0.5492 0.7576-0.2904 0.5934 0.1136 0.7576-1.061 1.023-0.1642 0.0884 0.2336-0.7702 0.3031 0.221 0.3031 0.7323-0.1326-0.5746 1.149 0.9154 0.202 0.3346 0.3851 0.6755-0.5934 0.2589-0.7639 0.8649 0.3094-0.3852-1.004 0.1957-1.048 2.292 0.6313-2.999 5.612-3.87 3.744-0.4925 2.267-0.0189 2.961 0.3094-6e-3 1.496 1.831 3.308 2.563 1.679 0.947 1.294-0.3283 0.5367 0.1578 1.206 1.326 2.058 1.56 0.6881 2.519-0.1136 1.206 0.4293 0.6188 1.054 0.4924 0.8649 0.8712 0.4924 2.734 0.7702 0.1642 1.572-0.2904 1.654 0.5934 4.072 3.391 0.8838 1.553 0.726 0.4546h0.5618l0.2652 0.3725 0.6313 4.3-1.168 0.9785-0.0253 1.692-1.288 0.7955-0.202 0.7071 0.6944 1.717-0.1073 2.065 1.118 1.629-0.0884 1.035-3.896 2.21-1.875 2.292-3.94 0.5618-1.964 0.9407-1.585 0.3662-0.606 0.9533-0.3346 1.964-2.349 1.894-1.13-0.8081-2.683-1.219-3.605-2.734-4.729-1.181-0.8207-1.806 0.1073-0.322 4.035-1.882-0.7639-4.59-1.547 0.8775-0.9912 1.017-0.6187-0.0884-0.4357-0.606-1.332-0.606-1.61 0.6692 0.1957-0.9722-4.249-8.668-1.566-4.224-2.728-4.053-0.2904-2.45-5.751-1.149-1.515-2.658-1.238-1.408-1.13-3.195-0.6692-1.08-0.9091-0.8081-0.7513-0.2589-1.913 0.4483-1.225-0.1136-0.4925-0.6123-0.4357-2.443-1.458-0.6692v-0.5934l0.4798-0.7007 2.664-1.017 3.612-3.207-0.0631-0.4104-1.503-1.395-2.065-0.6502-1.686-1.73-0.7828-2.5-0.7954-1.073-1.345-3.1-1.957-3.441 0.3725-1.282 1.831-1.25 1.616-4.533 0.3346-3.599-0.3725-2.071-0.7702-0.8902 0.0442-1.837 1.515-1.837z" title="Cuscatlán"/>
	<path id="SV-LI" d="m152.2 89.6 1.56-0.6123 1.282 0.7197 0.322-0.1452 0.2084-1.427 0.9912-1.023 0.2084-1.591 0.5682-0.7702 0.7449-0.1705 1.174 0.6188 1.118-6e-3 2.084-0.9343 2.431-2.361 2.128-0.3283 0.7828-0.0316 0.7449 0.5618 0.442 3.119 0.3094 0.4293 0.7386 0.0505 1.225-0.5492 0.7765 0.1263 0.6629-0.7007 0.524-0.101 0.8081 0.4167 0.5872 1.61 0.5872 0.442 0.0758 0.6944-0.8459 0.7071-0.2084 0.827-1.111 0.5366 0.0189 1.56-0.6629 2.311-0.1578 0.2147-0.505-0.1578-0.4167 0.4862 0.1894 1.263-0.3346 0.9659 1.781 2.999 0.4041 0.1389 0.8018-0.3852 1.244 1.25 0.341 0.1642 0.5746-0.341 0.7134 1.875 1.073 0.7197 0.1578 0.4798-0.2589 0.2589-1.136 0.2904-0.4041 0.4483 0.4167 1.238 3.87 1.686 4.634 0.7576 0.3473 0.8207 0.1263 2.26-0.2778 1.433-1.907 1.307-0.1326 2.121-1.181 0.9407-0.4546 5.222-0.9028 3.788-1.124 3.245-0.7954 3.63-1.642 3.29 0.4672 3.018-2.393 8.112-1.174 2.734-0.7702 0.8523 0.2841 0.4988 0.5618 0.2336 2.696-1.143 0.7639 0.1642-0.2778 1.484-2.065 2.178-0.0189 0.8144 0.3725 0.606-0.7513 0.6123 0.0884 0.524 2.191 0.5998 4.199 1.844 0.4546 0.6755 0.7765 3.334 0.5934 1.351 0.3788 0.6187 1.97 1.269 0.3915 0.5618-0.3788 0.6881-1.591 0.3599-0.4293 0.3409-0.6187 1.421-0.3409 2.128 0.0884 0.5176 0.4609 0.2526 1.995 0.0189 1.522 0.6818-0.0631 0.4104-1.458 1.421-0.6439 1.679 0.2399 1.736-0.6818 1.339 0.1578 1.654 1.263 1.844 0.6187 1.471-0.3852 3.125-1.206 1.888-0.4293 1.32-0.0316 1.212 1.85 3.971 0.9154 1.32 0.5366 2.204 1.566 1.49 0.1642 1.282-0.4356 1.105 0.0568 0.5871 0.9091 0.5746 2.065 0.2084 2.147 0.7134 0.6818-0.5746-0.0884-1.635 0.3915-0.6944-0.322-0.3852 0.1515-0.3536 3.454-0.0505 0.1452 1.269-0.3788 2.128 1.275 0.3473 3.428-0.5618 0.4167 0.2462 0.0442 0.5556-0.9912 3.593-0.5114 0.8396-1.25 1.339-1.705 0.7197 0.0442 0.4167 0.5746 0.3157 0.2589 0.6692-1.111 2.507-2.652-1.749-1.705-0.4041-3.814-1.919-0.2841-0.6944-1.307-0.12-2.563-1.743-6.313-2.734-0.625-0.4608-0.0568-0.4104h-1.08l-7.058-2.968-0.625-0.524-2.279-0.4609-1.818 0.2336-0.3978-0.3536h-1.541l-0.7386 1.168-0.6818 0.3473-0.6818-0.5808-3.359-0.8712-1.307 0.5808-1.591-1.225-1.37-0.4609-2.5 0.0568-1.25-0.524-0.8586 0.4041-0.7954-0.6376-0.625 0.4104-0.7955 0.0568-0.9659-0.2336h-1.143l-0.7955-0.2336-1.421 0.7007-2.557-0.7576-0.9722 0.3473-1.591-0.2904-0.9659-0.1768-3.075-0.8081-1.136 0.4041-1.023 0.1768-4.78-0.524-0.6818 0.2336-0.1768 0.3473-2.046 0.4672-2.166 0.1136-1.534-0.6376-1.875-1.048h-0.9091l-1.825-0.0568-1.648-0.7576-1.421-0.1768-1.086-0.2273-1.307-0.2968-2.734-0.1136-0.1705-0.4041-0.5682-0.1768-0.2841 0.2336-1.08-0.12-0.625-0.6944-2.052-0.7702 4.022-3.125 3.302-4.262 4.224-4.003 0.606-1.136 0.6755-4.338 0.606-1.812 1.787-2.065 1.073-1.736 2.128-1.32 1.509-1.825 0.202-1.578-0.928-9.489 0.3283-1.888 1.017-0.7828 1.073-0.3788 5.808-0.8081 0.6755-2.273 1.339-0.5556 0.6376-1.427 1.187-1.054 1.288-0.3157 0.3788 0.5304 0.8459 0.1578 0.5051-0.5304 0.3283-1.2 1.534-0.3094 1.054-2.324-0.1452-1.894-0.442-0.5114-0.9849-0.1136-1.768-0.8207-0.1263-2.406-0.9975-0.8838-0.8081-2.103 1.263-1.288 1.061-0.3094 0.8523-0.6565 0.3599-1.238-0.2399-0.8523 0.4104-0.2526-0.2336-0.6439 0.7323-2.45-0.9407-2.885 0.4988-0.606-0.3662-3.113-1.534-4.716 0.827-1.383-0.4609-1.187 0.8902-1.193 0.2399-1.174 0.7007-0.7386 0.6187 0.3283 0.2715-0.1642 0.6818-1.566 0.8712-0.12 0.4167-0.7954 1.894-0.2084 3.946-3.466 1.913-0.4357 0.7765-0.7134-0.0189-1.162-0.7386-1.345 0.1957-1.711-0.5114-1.56 1.004-2.336 0.9722-0.0568 0.3031-0.8901 0.7513-0.5366-0.101-1.654-1.067-0.7323-0.1326-0.3978 1.035-1.989 0.0505-0.8144z" title="La Libertad"/>
	<path id="SV-MO" d="m414.3 97.5 1.957 1.32 5.171 0.3473 0.0695 4.06 1.376 2.039 0.9849 0.8775 1.484 2.671 6.78 9.634 0.9849 3.795 10.7-6.123 1.086 1.061-1.604 4.041-0.3031 2.368 0.0316 1.591 0.928 5.259 0.2526 5.776-1.673 7.449 0.4483 0.6565 2.898-0.3725 0.5366 0.4294 0.3978 3.005 0.9343 2.065-0.3915 4.344-1.092 2.355-1.673 5.625-5.852 12.68 0.2904 2.273-1.964 5.342-1.837 2.589-4.401 1.913-0.726 0.6818-1.566-0.2589-1.661 0.1642-7.803 2.848-4.274 1.08-0.9912-0.5366-2.096-4.565-4.533-1.711-0.5304-0.5618 0.3031-1.471 1.061-1.256-0.3599-1.433 0.4104-0.6439-0.928-0.5618-0.0126-0.6124-0.6565-0.6123 0.1957-1.181-4.072 0.0884-3.99 0.8207-2.222 0.1578-1.231 0.4041-2.627 1.799-1.225 0.2336 1.061-2.159 1.339-1.187-0.1957-0.6818-4.035-2.923-0.1642-0.7007 0.4041-1.749-0.3852-1.042-2.652-1.597-1.269-2.14-4.83-4.224-0.5618-1.522-0.1136-3.245 0.5618-2.342 0.726-1.193 2.601-1.976 5.48-3.435 0.3094-0.6944-0.2273-2.715-7.917-6.022-1.275-3.22-0.4672-3.801 2.854-4.508 0.1073-3.548 0.947-0.7071 1.389 0.2841 0.4041-0.1894-0.726-2.286-2.33-1.086 0.101-1.32-0.4609-0.8523 1.13-0.5051 8.106-6.976-0.2968-4.394 0.7828-2.911 0.2336-3.353 1.2-0.0189 0.4357-0.6123 2.09 0.0126 0.1136 0.7197 0.6755 0.5051 1.174 0.2904 1.604-0.1578 0.7765-0.0379 0.6188 1.206 0.6629 0.0695 0.7702-0.3725 0.5618 0.1515 0.423 0.3915 0.8965-0.1831 1.136-0.0884 0.7197-1.099 0.9912 0.2399 0.4041-0.4041 1.244 0.524 2.298-0.7134 2.084-1.282z" title="Morazán"/>
	<path id="SV-PA" d="m251.7 238.9 1.307 0.5808 0.5114 1.105-3.416-0.8144-0.7386-0.524 0.1136-0.3473zm-6.767-3.485 0.3978 0.2336 0.1705 0.6944-0.5681-0.2336zm-0.8523-0.1768 0.5681 0.8712-1.591-0.3473 0.0568-0.4041zm8.441-70.45-0.4167 5.416 1.389 3.226-1.389 5.436 1.427 0.7576 2.772 0.6187 4.792-0.2968 2.892-0.8144 0.5682 0.2904-0.3852 2.109 0.7071 1.383 0.0505 1.174 3.769 8.447 0.3662 1.452-0.1452 2.469-1.092 3.447-0.2778 2.336-0.8081 1.288 0.0568 1.042 0.6439 1.85-0.12 2.248 0.7513 1.578-0.1263 1.56 0.6376 0.8712 2.052 0.8902 0.7576 2.197 1.882 1.806 1.85 0.8396 1.08 1.78-0.1768 0.8586-1.364 1.749-0.0884 1.837-0.2968 0.7449-0.625 0.625-1.698 0.2904-0.8775 0.8586-0.0631 0.6313 0.9217 1.25-0.7576 2.033 0.221 1.667-0.2904 1.099 0.5808 1.294 1.339 1.654 0.1326 1.25-2.001 2.02-1.692 0.1326-0.8901 0.3978-0.8523 1.256-0.8586 0.6376-0.2589 0.5176 0.2589 0.7512-0.1831 0.423-0.947 0.8712-0.726 1.534 0.1578 0.8081-0.322 0.9028 0.0126 1.56-6.035-3.365-2.791-0.8144-0.9659-1.048 0.1136-1.219 0.3536 0.2336 0.1578 0.8144 0.9091 0.6944h0.4546l1.989-1.566 0.3031 0.0568 0.6629 0.4672 0.1705 0.7576 0.4546 0.12-0.5114-1.048-0.8523-0.5808 0.2273-1.219 2.387-0.4041 0.2273-0.8144-0.2841-0.6376 0.4608-0.5871-0.4546 0.1768-0.2841 0.524 0.3915 0.4988-0.0884 0.442-2.69 0.6313-0.2273 1.219-0.5682 0.6944-0.3599 0.2968-0.8333 0.0505-0.3978-1.048 0.5682-0.7576-0.9091 0.4104-1.193-1.395-0.341-0.1136-0.3978-0.0568-0.6818-0.9849 0.5114-0.2336 0.0568-0.3473-0.2273 0.0568-0.341-0.6376-1.136-0.928-2.393-0.0568-0.625-0.524 0.0568 0.4672h-0.625l-0.2841 0.5808-0.4546-0.0568-0.2147-0.3536-0.3536 0.2904-0.5114-0.0568-0.9091-0.9849-0.9091-1.976-1.364-0.7576-0.625 0.2904-1.231-0.1452-0.5934-1.427-0.1705 0.2904 0.4167 0.7702-0.0189 0.3915 0.9091 0.3473 0.0568 0.3473-1.875 0.4672-1.206-1.174-2.81-0.4546-0.6502-1.155-0.5682 0.1768-0.7955-0.4041-1.364-0.1768-0.7386-0.5808-0.2841-0.6376-0.4546 0.0568 0.7386 0.7576-0.1136 0.2904 0.341 0.4041 2.336 0.4672 1.989 1.339h1.648l2.159 1.452 2.109-0.2336 1.762 0.6944 2.166 2.267 3.814 1.743 1.705 0.1768 1.136 1.162 0.341 0.8712-0.9091 0.2904-1.762-0.524-8.763-4.704-11.38-5.171-1.023-0.1768-6.711-2.671-0.2841-0.8144-0.4546-0.1136-0.1136 0.3473-0.9659-0.1768-2.791-1.162-4.609-2.791-15.84-8.832 1.111-2.5-0.2652-0.6692-0.5746-0.3157-0.0442-0.4167 1.705-0.7134 1.25-1.339 0.5114-0.8333 0.9912-3.593-0.0442-0.5556-0.423-0.2462-3.422 0.5618-1.282-0.3473 0.3851-2.128-0.1515-1.263 1.143-3.271 1.528-0.9785 0.2968-1.307 0.7765-1.092-0.12-2.336 1.503-1.572 0.3725-1.149-0.5304-1.793 0.0189-2.21-0.2841-1.092-2.374-3.005-0.5492-2.342-0.8333-1.332 0.2399-0.6881 1.787-0.6944 7.853-0.5997 0.9785-0.8018 2.298-3.946 1.591-1.642 3.151 1.054 0.9722-0.3536 0.1326-0.8775 0.606-0.0316 1.301 0.423 1.919 1.477 1.307 0.1831 0.6692-0.3915 1.294-1.572 0.7828-0.0695 0.5997-0.7513 1.465-0.7197 1.882-0.0126 0.8838-1.97-0.4988-0.0568-0.8965-1.168 4.723 1.187 3.605 2.734 2.69 1.219 1.13 0.8081 2.349-1.894 0.3346-1.964 0.6123-0.9533 1.585-0.3662 1.964-0.9407z" title="La Paz"/>
	<path id="SV-SA" d="m151.9 4.613 1.004-0.543 0.606 0.12 2.917 2.292 0.9722 0.2399 1.099-0.5808 0.6692 0.3157 8.46 9.059 2.589 4.085 8.1 5.852 1.029 0.9722 0.2336 0.6881-0.3978 1.086-0.9091 1.067 0.2715 1.597-0.4672 1.035-0.0821 1.458-0.8207 1.667-1.048 1.13-0.1136 2.001 0.3094 0.7576-0.3599 0.423 0.1263 0.7702-1.326 1.831-3.1 1.888-1.408-0.6439-0.6123 0.2589-0.7828-0.1957-1.446 1.073-1.427-0.2084-0.9849 0.625-0.0884 1.105 0.5176 0.9028 0.0316 0.8965 0.846 1.042 0.202 0.7197-0.9154 2.557 0.7765 2.443-0.5366 3.422-1.736 1.25-2.071-0.0821-0.6692 0.6565-1.136 0.2715-1.042-0.1578-3.024 0.3788-0.7197 1.181-0.0442 1.585-0.8965 0.3473-0.0884 0.9154-3.637 3.245-2.494 0.4356-0.5682 1.345-0.8396 0.7891-0.1389 0.4735 0.7765 0.5746 0.4546 1.301 0.1515 2.014-0.6502 0.9217-1.793 0.5934 0.0695 1.099-1.2 0.8396-0.4294 0.9722-0.7954 0.6123-0.202 1.162 0.4546 1.957-0.6881 0.8838 0.5367 1.806-0.322 2.349 0.4988 0.6376 1.806 0.1389 1.73 1.174 2.709-0.4608 2.311 0.5618 0.2652 0.3283-0.0505 0.8144-1.035 1.989 0.1326 0.3978 1.067 0.7323 0.101 1.654-0.7513 0.5366-0.3031 0.8901-0.9722 0.0568-1.004 2.336 0.5114 1.56-0.1957 1.711 0.7386 1.345 0.0189 1.162-0.7765 0.7134-1.913 0.4357-3.946 3.466-1.894 0.2084-0.4167 0.7954-0.8712 0.12-0.6818 1.566-0.2715 0.1642-0.6188-0.3283-0.7007 0.7386-0.2399 1.174-0.8902 1.193 0.4609 1.187-0.827 1.383 1.534 4.716 0.3662 3.113-0.4988 0.606 0.9407 2.885-0.7323 2.45 0.2336 0.6439-0.4104 0.2526 0.2399 0.8523-0.3599 1.238-0.8523 0.6565-1.061 0.3094-1.263 1.288 0.8081 2.103 0.9975 0.8838 0.1263 2.406-2.841-1.105-1.585 0.0631-1.073 0.5618-1.294-0.2589-1.604 0.3157-1.566-0.4041-1.799-1.414-1.25-0.4862-2.765-1.793 0.2904-1.863-0.1957-1.08-1.673-1.572-1.282-0.7576-0.8712-0.0189-0.442-0.5556 0.2273-0.5745 0.8333-0.2715 0.0505-0.3978-1.029-0.0505-1.951-0.8207h-1.351l-1.9 1.099-3.157 0.8333-0.4546 3.567-0.6123 0.5934-1.591 0.7639-0.3788 1.067-0.6755 0.4357-1.364-1.736 0.5492-1.534-0.5746-1.187-0.9091-0.5492-2.412-0.6376-1.793 0.7828-0.726-0.5998 0.2778-0.9091 4.06-3.586 0.1894-0.5367-0.322-0.8396 0.2652-1.162-0.1389-0.5051-1.187-0.5934-4.3-0.1705 0.1515-0.6881-0.7891-1.995 0.5997-0.7386-0.1705-0.9849 0.3473-0.9722-0.6881-0.5618 0.9722-0.7891 0.07576-0.543-0.7449 0.2589-0.7197-0.1389-0.5997 0.6313-0.5997-0.2399-1.32 0.4546-1.452-1.225-1.825-0.5556h-0.7828l-0.6187 0.5997-0.6502-0.1452-1.61 0.4862-2.936-1.13-1.219 0.1642-0.8396 0.8081-1.402-0.726 1.143-0.2778 2.336-3.485 0.2462-0.9722-0.1263-1.648 1.269-2.191 0.5177-3.46 3.17-4.363 0.3346-4.098-0.3473-0.947-0.6187-0.6376-4.072-2.14-0.3978-0.5304-0.7134-3.447-1.099 0.0884-0.6692-0.7134-1.717-0.0694-0.1452-0.726 1.2 0.2589 0.2462-1.263-1.307-0.7386-0.4483-1.705 0.5555-1.326-0.9154-1.212 2.178-4.578 0.4799-2.235 2.191-5.663 1.755-3.22 9.836-8.763-0.03788-0.4546 5.972-3.271 1.414-0.3473 1.711-0.0947 4.685 0.6629 5.41-0.6188 4.357-2.286 3.119-0.9154 1.705-0.9028 0.7513-0.6439 0.4924-2.065 0.7955-0.6376 0.0442-0.7071-0.7702-0.3599 6e-3 0.524-0.3094 0.2904-2.241-5.726-2.627-3.574-0.7134-2.222 0.9343 0.6692 0.3536-0.2652 0.4041-1.01-0.4041-1.357-1.136-1.099-1.017-0.2652 0.0442-0.6692-0.4167-0.1642-0.5176-1.004-0.6502-0.2841-2.734-0.0505-0.9849-0.3536-1.313 1.149-0.6376 0.0694-0.12-0.3473 0.1705-3.239 0.8397-2.488 0.9659-0.4293 1.515 0.1136 0.543-0.4862 0.0821-1.44 1.547-0.322-0.3157-1.225-2.279-1.995 0.2841-0.9343-0.9028-4.104 0.2462-3.252 0.928-1.831 6.698-0.221-0.3094 0.8712 2.09 3.454-0.8775 2.488 1.623 0.5176 0.3725-0.4609 1.162 0.0442 1.275-1.787 5.07-4.552 0.9596-0.0189 1.2-0.6881 1.37-1.44 1.44 0.7323 1.357 0.1894 1.572 0.8775 1.661 0.4356 0.1705 0.9912 1.029 0.5556 1.282-0.1768 2.784-2.178 1.446-1.863 0.7828-0.4609 0.4104-1.629 0.7323-1.124 1.37-0.2904 0.5746-0.6502 0.7765 0.6502z" title="Santa Ana"/>
	<path id="SV-SM" d="m381.9 116.7 0.4609 0.8523-0.101 1.32 2.33 1.086 0.726 2.286-0.4041 0.1894-1.389-0.2841-0.947 0.7071-0.1073 3.548-2.854 4.508 0.4672 3.801 1.275 3.22 7.917 6.022 0.2273 2.715-0.3094 0.6944-5.479 3.435-2.601 1.976-0.726 1.193-0.5618 2.342 0.1136 3.245 0.5618 1.522 4.83 4.224 1.269 2.14 2.652 1.597 0.3852 1.042-0.4041 1.749 0.1642 0.7007 4.035 2.923 0.1957 0.6818-1.339 1.187-1.061 2.159 1.225-0.2336 2.627-1.799 1.231-0.4041 2.222-0.1578 3.99-0.8207 4.072-0.0884-0.1957 1.181 0.6565 0.6124 0.0126 0.6123 0.928 0.5618-0.4104 0.6439 0.3599 1.433-1.061 1.256-0.3031 1.471 0.5304 0.5618 4.533 1.711 2.096 4.565 0.9912 0.5366 4.274-1.08 7.803-2.848 1.661-0.1642 1.566 0.2589-0.8144 1.339 0.1642 1.61-0.5934 2.159 0.9975 2.128 1.604 7.443-0.322 0.6881-2.885 0.6124-1.017 0.625-1.275 5.304-0.2084 3.34 0.625 3.391 1.238 2.267 1.957 0.8649 0.6502 0.6187 1.067 0.2273-0.3031 1.105-1.124 1.932-1.168 4.155-0.6629 0.4735-1.105 0.1705-0.3031 0.5114 0.524 0.7828 1.225 0.8207 1.086 2.399-1.01 3.927-1.282 3.106 1.395 4.079 0.423 9.11-0.6502 0.5114-6.458-0.6755-1.174 0.2526-1.938 4.098-1.692 5.07-0.7386 6.25-0.0821 0.2336-4.167-0.2904-1.023 0.1705 0.0568 0.6439-0.5176 0.3094-2.286-3.536-5.083-6.565-1.351-3.081-7.715-0.9343-2.544 1.515-0.9659-0.2336-0.928-0.8333-0.4293-0.8775 0.101-1.035 0.4546-0.827 3.207-2.759 0.12-0.4546-1.168-1.945-1.402-0.947-0.8207-0.947-0.8649-0.1768-1.118 0.5114-0.3409-0.2399 1.269-3.965-0.7007-1.017-0.3978 0.0695-0.2968 0.726-0.6818-0.1452-0.341 0.7449-0.6565-0.6818-2.488 0.6502-0.5304-0.8586-0.7007-0.221 0.7007-0.3725-0.3157-0.2778-1.427-0.1326-0.8523-0.543-0.2399 0.8712-0.625-0.3978-0.4546 1.635-0.3094 0.0253-0.5492-0.5618-0.606 0.2526-1.187 4.458 0.0568 1.56 2.172 3.037-0.1136 0.5746-1.919 0.6692-2.33 0.2336-1.212 0.5872-1.017-0.2147-0.4862-0.5304-0.2526-0.7513 0.2526-3.176-0.8523-1.269-0.0253-0.5808 1.85-2.159 3.574-1.642 0.5618-0.9217-0.505-2.437-1.244-2.519 0.2462-2.071-0.4988-0.1894-3.643 0.442-1.888-0.442-4.237 0.1136-0.8523-0.3283-0.0316-2.298-0.423-0.9975-0.7197-0.1515-0.4609-0.947-0.5997-0.202-0.7197-0.9785-2.185-0.9722-0.7765-1.168 0.0253-0.928 0.8144-1.825-0.4735-4.047 0.9533-2.267-0.0631-1.774-1.168-0.9912-0.3536-2.45-0.3662-0.625-1.181-0.0568-1.187 0.5618-0.5872-0.4041 0.442-4.66 0.524-0.3157 1.913 0.4924 1.118-0.4862 0.1768-1.326-0.4672-2.349 0.5746-0.827 1.408-1.08 0.4546-1.534-0.6881-10.13-2.349-1.238-0.928-0.7828 1.08-3.037-0.6187-2.462 0.1705-1.326 0.7449-0.322 0.827 0.2462 1.32 1.49 0.3662-0.0316 0.2462-0.4357-0.4988-2.121 0.0884-0.6313 0.5872-0.7576 0.0189-0.6376-0.2462-0.4988-1.572-0.8586-0.4546-0.9912 0.0316-1.648 0.7386-1.932-0.9028-4.805-0.6565-0.5618-0.9849 0.0126-0.7765 0.3346-0.9659 1.004-1.528 0.2147-2.185-1.2-1.155 0.0442-0.5114-0.9722-1.118-0.846-0.3788-0.6439-1.263-0.3346-2.582-3.403-1.496-0.8018-0.4609-0.0189-0.6944 0.9343-1.061-0.1768-0.524 0.2147-0.3914-0.2273-0.3725 0.3536-1.155-0.9343-1.2 0.1705-1.446-0.2841-0.8207-0.6881-2.033-0.7576-0.1894-0.8018 0.2399-2.058-0.6818-1.326-0.9912-0.101-1.49 0.7765-0.625-0.0758-1.017-4.723 0.4988-0.2336 0.1452-0.8838-1.124-2.103 0.0631-1.32 0.7007-1.522 1.244-0.5934 0.3346-1.01 0.9912-1.32 0.2462-1.408-0.6818-1.679 0.0126-0.7386 0.5746-0.9533 2.551-2.715-0.2084-2.551 0.928-1.806-0.1957-2.065 0.9722-2.134 1.629 0.0947 3.29 1.465 0.6123-1.193v-1.307l3.763 0.3094 1.231-0.1957 2.222-2.993 1.888-0.6502 8.636-0.6944 4.836 3.574 7.405-2.696z" title="San Miguel"/>
	<path id="SV-SO" d="m35.57 165 1.781-0.8396 0.827-1.547 1.414-0.7955 2.437-4.274 1.219-0.2084 1.193-1.124 0.7449-0.0631 4.521 3.927 1.054 1.408 2.822 1.042 1.661 0.9659 2.273 2.134 1.2 0.1389 2.93-0.4167 0.9785-1.844 1.414-5.745 1.143-2.128-0.0442-2.058 1.591-3.649 0.2399-3.144 0.6123-0.5745 2.658-0.2652-1.212-3.479-0.8712-3.915 0.02526-1.244 0.7197-2.885 0.8333-1.092 2.077-1.755 2.065-3.567-0.1957-0.8649-1.553-2.784-1.395-5.719 0.7386-0.7955 2.128-0.2147 1.932-0.9659 1.585-2.311 0.4609 0.7007 1.844 0.5114 0.6376 0.8712 1.402 0.726 0.8396-0.8081 1.219-0.1642 2.936 1.13 1.61-0.4862 0.6502 0.1452 0.6187-0.5998h0.7828l1.825 0.5556 1.452 1.225 1.32-0.4546 0.5997 0.2399 0.5997-0.6313 0.7197 0.1389 0.7449-0.2589-0.07576 0.543-0.9722 0.7891 0.6881 0.5618-0.3473 0.9722 0.1705 0.9849-0.5997 0.7386 0.7891 1.995-0.1515 0.6881 4.3 0.1705 1.187 0.5934 0.1389 0.5051-0.2652 1.162 0.322 0.8396-0.1894 0.5366-4.06 3.586-0.2778 0.9091 0.726 0.5997 1.793-0.7828 2.412 0.6376 0.9091 0.5492 0.5746 1.187-0.5492 1.534 1.364 1.736 0.6755-0.4357 0.3788-1.067 1.591-0.7639 0.6124-0.5934 0.4546-3.567 3.157-0.8333 1.9-1.099h1.351l1.951 0.8207 1.029 0.0505-0.0505 0.3978-0.8333 0.2715-0.2273 0.5746 0.442 0.5556 0.8712 0.0189 1.282 0.7576 1.673 1.572 0.1957 1.08-0.2904 1.863 2.765 1.793 1.25 0.4862 1.799 1.414 1.566 0.4041 1.604-0.3157 1.294 0.2589 1.073-0.5618 1.585-0.0631 2.841 1.105 1.768 0.8207 0.9849 0.1136 0.442 0.5114 0.1452 1.894-1.054 2.324-1.534 0.3094-0.3283 1.2-0.5051 0.5304-0.8459-0.1578-0.3788-0.5304-1.288 0.3157-1.187 1.054-0.6376 1.427-1.339 0.5556-0.6755 2.273-5.808 0.8081-1.073 0.3788-1.017 0.7828-0.3283 1.888 0.928 9.489-0.202 1.578-1.509 1.825-2.128 1.32-1.073 1.736-1.787 2.065-0.606 1.812-0.6755 4.338-0.606 1.136-4.224 4.003-3.302 4.262-4.022 3.125-1.762-0.7449-3.643-0.8144-0.8523-0.5808-2.734-0.3473-3.353-0.5808-3.529 0.2904-0.1705-0.3473-0.4546-0.0568-2.052 1.105h-0.4546l-0.2273-0.3536-2.387 0.3536-4.836-0.1768-3.473-0.5808-1.427 0.4609-1.875 0.1768-0.5681 1.048-0.625-0.6376-0.9091 0.8144 0.2273 0.5176-0.1705 0.4104h-0.6818l0.1136-0.8712-0.2273-0.2904-1.256-0.1768-0.8523 0.7007-0.1705 0.7513h-0.3409l-0.1705-0.7513 0.1136-0.7576-0.5681-0.4672-0.625 0.2336-0.05682-0.6376-1.149-0.5808-0.5618 0.1136-0.05682-0.524 0.625-0.2336v-0.524l-0.9659-0.2336-0.2841-0.6376 0.2273-0.4609-0.625-1.692 0.1136-1.275-0.3978-1.168-0.4546-0.1894-0.1705-1.667-1.08 0.0568-0.7386-0.7576 0.2841-0.3473 0.1705 0.4041 0.7386-0.2336 0.2273 0.3536 0.2841-0.12-0.2273-1.629-0.3409-0.1136 0.5114-1.452-1.08-1.806-1.256-0.9343-0.9091-0.5177-3.302-2.039-3.864-2.5-10.01-5.644-0.8586-0.5808 0.1705-0.4672-0.5114-0.4672-0.2273 0.4672h-0.3409z" title="Sonsonate"/>
	<path id="SV-SS" d="m175.2 87.01 0.9154-1.124 0.9028 0.3283 2.084-0.5492 0.3725-1.118 0.9091-0.3852 3.574 0.5998 1.938 1.339 0.7071-0.1073 1.9-0.7386 1.421-1.528 1.762-0.928 0.5114 0.0253 0.8965 0.7512 0.2652 1.035-0.322 1.2 1.458 1.326 0.2715 0.7639 1.212-0.423 1.294-0.0442 1.111-2.039 1.351-0.5366 0.4672-1.256 0.9722-0.4357-0.2399 1.143 0.5618-0.202-0.846 2.702-1.515 1.837-0.0442 1.837 0.7702 0.8902 0.3725 2.071-0.3346 3.599-1.616 4.533-1.831 1.25-0.3725 1.282 1.957 3.441 1.345 3.1 0.7954 1.073 0.7828 2.5 1.686 1.73 2.065 0.6502 1.503 1.395 0.0631 0.4104-3.612 3.207-2.664 1.017-0.4798 0.7007v0.5934l1.458 0.6692 0.4357 2.443 0.4925 0.6123 1.225 0.1136 1.913-0.4483 0.7513 0.2589 0.9091 0.8081 0.6692 1.08 1.13 3.195 1.238 1.408 1.515 2.658 5.751 1.149 0.2904 2.45 2.728 4.053 1.566 4.224 4.249 8.668-0.1957 0.9722 1.61-0.6692 1.332 0.606 0.4357 0.606 0.6187 0.0884 0.9912-1.017 1.547-0.8775 0.7639 4.59-4.035 1.882-0.1073 0.322 0.8207 1.806 0.8965 1.162 0.4988 0.0568-0.8775 1.97-1.882 0.0126-1.465 0.7197-0.5997 0.7513-0.7828 0.0631-1.294 1.578-0.6692 0.3852-1.307-0.1768-1.926-1.484-1.301-0.423-0.606 0.0316-0.1326 0.8838-0.9722 0.3536-3.151-1.048-1.591 1.642-2.298 3.946-0.9722 0.8018-7.853 0.5997-1.78 0.6944-0.2462 0.6881 0.8396 1.332 0.5492 2.342 2.374 3.005 0.2841 1.092-0.0126 2.21 0.524 1.793-0.3662 1.149-1.509 1.572 0.12 2.336-0.7765 1.099-0.2968 1.301-1.528 0.9849-1.136 3.264-3.454 0.0505-0.1515 0.3536 0.322 0.3852-0.3915 0.6944 0.0884 1.635-0.6818 0.5746-2.147-0.7134-2.065-0.2084-0.9091-0.5746-0.0568-0.5872 0.4356-1.105-0.1642-1.282-1.566-1.49-0.5366-2.204-0.9154-1.32-1.85-3.971 0.0316-1.212 0.4293-1.32 1.206-1.888 0.3852-3.125-0.6187-1.471-1.263-1.844-0.1578-1.654 0.6818-1.339-0.2399-1.736 0.6439-1.679 1.458-1.421 0.0631-0.4104-1.522-0.6818-1.995-0.0189-0.4609-0.2526-0.0884-0.5176 0.3409-2.128 0.6187-1.421 0.4293-0.3409 1.591-0.3599 0.3788-0.6881-0.3915-0.5618-1.97-1.269-0.3788-0.6188-0.5934-1.351-0.7765-3.334-0.4546-0.6755-4.199-1.844-2.191-0.5997-0.0884-0.524 0.7513-0.6124-0.3725-0.606 0.0189-0.8144 2.065-2.178 0.2778-1.484-0.7639-0.1642-2.696 1.143-0.5618-0.2336-0.2841-0.4988 0.7702-0.8523 1.174-2.734 2.393-8.112-0.4672-3.018 1.642-3.29 0.7954-3.63 1.124-3.245 0.9028-3.788 0.4546-5.222 1.181-0.9407 0.1326-2.121 1.907-1.307 0.2778-1.433-0.1263-2.26-0.3473-0.8207-4.634-0.7576-3.87-1.686-0.4167-1.238 0.4041-0.4483 1.136-0.2904 0.2589-0.2589-0.1578-0.4798-1.073-0.7197-0.7134-1.875-0.5746 0.341-0.341-0.1642-1.244-1.25-0.8018 0.3852-0.4041-0.1389-1.781-2.999 0.3346-0.9659-0.1894-1.263 0.4167-0.4862 0.505 0.1578 0.1578-0.2147 0.6629-2.311-0.0189-1.56 1.111-0.5366 0.2084-0.827 0.8459-0.7071z" title="San Salvador"/>
	<path id="SV-SV" d="m258.5 145 0.4925-0.101 1.983-2.462 0.8965-0.6187 3.599-0.3662 1.452 0.524 1.168-0.12 2.532 0.4862 2.128-0.1136 4.912-2.854 1.553-0.4167 1.408 0.3788 0.625-1.035 0.8838-0.3536 1.465 0.5114 0.8901-0.0947 1.515 0.6187 0.3914-0.1136 0.3852-0.6692 0.9849 1.964 0.5745 0.3473 1.061-0.5304 1.383 0.442 3.245-1.004 1.25 0.8965h3.113l1.452-1.313 0.5114-0.1263 1.806 0.6629 0.2273 1.13 1.629 1.048 2.904 0.2273 2.027 1.465 1.717 0.6629 2.57-0.0189-0.341 2.412 0.9028 0.9154 0.6818 0.2715 0.606 1.844 3.713-0.0379 0.8207-0.4735 1.143 0.4672 1.831-0.0947 1.503-0.5618 0.9217 0.0631 1.225-0.5492 0.5998 0.0821 0.9091 1.118 1.017 4.723 0.625 0.0758 1.49-0.7765 0.9912 0.101 0.6818 1.326-0.2399 2.058 0.1894 0.8018 2.033 0.7576 0.8207 0.6881 0.5997 1.458-1.793 3.113-1.061 0.7765-2.999 0.8838-1.452 0.7954-1.231 1.755-1.585 0.7386-1.32 1.023-2.02 2.481-0.7449 2.753-1.951 1.44-1.238 3.233-0.4988 0.4041-2.254 0.7197-4.464 0.2526-3.971 1.181-0.928 0.9849-0.6565 1.661-0.8712 0.8459-1.995 4.041-0.606 0.3536-1.724-0.1578-1.124 0.8965-0.442 1.408 0.442 2.664-0.7513 1.566-0.4167 4.104-0.8965 2.753-0.1515 4.641-0.9217 1.515-1.452 1.244-2.254 5.972-3.176 4.767-3.182 6.483 0.12 2.494 0.6124 1.238 1.332 0.846 0.1578 1.099-0.2462 0.6881-2.702 1.067-1.395 1.686-1.301 2.652-1.168 0.7576-3.239 3.264-2.286 1.048-1.635 1.433-1.433 0.2084-1.187 0.5618-0.8775 0.9912-0.2715 1.32 1.307 1.339 1.591 0.9154 3.731 1.238 0.6502 0.8397 0.1136 1.023-7.683-2.387-4.211-2.317-0.5682 0.2904-0.7891-0.4735-0.0126-1.553 0.322-0.9028-0.1578-0.8081 0.726-1.528 0.947-0.8712 0.1768-0.423-0.2589-0.7576 0.2589-0.5176 0.8586-0.6376 0.8523-1.263 0.8901-0.3914 1.692-0.1326 2.001-2.02-0.1263-1.25-1.339-1.654-0.5872-1.301 0.2968-1.099-0.221-1.667 0.7576-2.039-0.9217-1.25 0.0631-0.6313 0.8775-0.8586 1.705-0.2904 0.625-0.6187 0.2968-0.7449 0.0884-1.837 1.364-1.749 0.1768-0.8586-1.08-1.78-1.856-0.8333-1.875-1.812-0.7576-2.197-2.052-0.8902-0.6376-0.8712 0.1263-1.56-0.7513-1.578 0.12-2.248-0.6439-1.85-0.0505-1.035 0.8018-1.288 0.2841-2.336 1.092-3.447 0.1452-2.469-0.3725-1.452-3.763-8.447-0.0568-1.174-0.7071-1.383 0.3852-2.109-0.5682-0.2904-2.892 0.8144-4.792 0.3031-2.772-0.6187-1.427-0.7576 1.389-5.43-1.389-3.233 0.4167-5.41 1.875-2.292 3.896-2.21 0.0884-1.035-1.118-1.629 0.1073-2.065-0.6944-1.717 0.202-0.7071 1.288-0.7955 0.0253-1.692 1.168-0.9785-0.6313-4.3z" title="San Vicente"/>
	<path id="SV-UN" d="m499.7 267.2 0.341 0.7449v1.395l-0.5682-0.524-0.2841-0.928zm-6.831-8.782 0.1705 0.4608 1.307-0.1136 1.604 0.4483 0.2778 1.471 0.9659 1.566 0.2273 1.048 0.1136 0.6944 0.2147 1.206-0.3852 0.7702 0.6755 0.6881-0.0505 0.9407 0.7386 0.4041-0.2399 0.8712h-0.5556l-0.6818 0.6944-1.08-0.3473-0.7386 1.048-0.3978-0.4041 0.3978-0.8712-0.9533-0.6502-0.6376 0.1263-0.2273 0.524-0.625 0.2904-1.13 0.0568-6e-3 -0.8081 0.3473-0.5304-0.0568-1.44-0.3978-0.4672-0.6818-0.1136 0.2273-0.524-0.5114-0.6376 0.2841-0.6376-0.3409-1.105 0.6818-1.004-0.4546-1.837 1.136-1.566zm-10.13-6.553 1.818 0.524 0.8586 0.8586 0.1705 1.395 0.6818-0.0568 0.2841 0.2904-0.2273 0.524 0.1705 1.042-0.2841 0.524-0.6123-0.4167-0.2968 0.1263-0.3978 0.7576v1.105l-0.8523 0.6944h-0.625l-2.103-1.162-0.3978-1.162 0.12-0.928-0.4041-0.2904-6e-3 -0.6376-0.4546-0.6944 0.0568-0.3599 0.5114-0.221-0.3978-0.5808 0.2273-0.6376 0.7386-0.5808zm5.53-8.497 1.08 0.4167 0.5114 1.275-0.341 0.3473-0.5746-0.12-0.3915 0.4672-0.5681-0.1136-0.3978 0.3473-0.6187-0.9343zm-0.3473-2.431 0.1705 0.3473-0.8018 0.5746-0.0505-0.4546zm0-3.719 0.2273 0.928-0.9659 0.9912-1.143 0.3473 0.1768 0.625-0.625 0.4798 0.625 0.7576-0.2841 0.6944 0.3978 0.4672-1.25 0.6944-1.414-0.2968-1.149 0.1642 0.5114-1.029-0.2841-1.105 0.0568-1.509-0.341-0.5808 0.1705-0.928 0.625 0.0631v-0.4104l0.5682-0.2904v0.524l0.3536 0.3473 0.9028-0.5177 1.023 0.5808 0.625-0.6376zm-21.5-15.02 0.1642 1.364-0.7891 1.275-1.307 0.12-1.484 1.452-0.3978-0.5871-0.9091-0.3978 0.1136-0.6376 0.9091-0.4672 0.8081-1.572 2.153 0.0631zm-7.159-106.5 1.926 1.351 1.301-0.0442 1.206 0.625 2.361-0.1452 4.192 1.452 1.976 0.101 4.098-1.2 5.095 4.06 4.293 1.768 0.7639 0.606 0.625 1.263 0.4357 4.161 0.7828 1.111 1.301 0.7702 1.25 1.256 1.882 0.2462 1.926 1.206 0.2904 1.831-0.4483 5.454-2.172 3.517-1.736 1.635-0.8649 1.951 0.0884 1.351 1.263 0.9975 0.1578 1.13-1.244 3.264-3.346 3.327-0.8144 1.528-0.2841 2.008 0.6187 4.603-0.543 4.439-0.4483 1.149-0.0442 5.871-1.395 1.256-2.248 3.22-0.4483 2.008-1.945 0.7197 0.019 0.4925 1.105 0.625-1.01 0.9154-0.4041 0.8901 0.2084 1.503-0.5304 1.888 0.8965 1.938-1.307 1.654 0.0821 0.6881 1.541 0.9217 0.3031 1.433 1.149-0.2526 2.178 0.8838 0.6502-0.2526 1.85-1.635 0.4609 0.0884 0.4988 1.458 0.5871 0.0505 1.048-0.7513 0.9975 0.1263 2.765 1.25 0.1515 1.345-0.6629 1.749 1.351 5.032-0.9722 2.633-0.0884 1.597-0.4483 0.5366-3.024-0.0758-2.014 1.749-0.7765-0.0758-0.5745-0.5114-3.012 2.185-0.4734 1.048-2.639 0.1642-1.724 2.633-3.454 0.1326-1.25-1.275-1.762-0.827-2.848-0.5682-0.5114-0.6376 1.364-3.081 0.0568-0.8144-0.3978-0.4041-0.1705-0.8144 0.2273-0.3473 0.7386-0.0568 1.534 0.8712 1.029-0.1136 1.181-1.522 0.2904-1.326 1.193-0.928-0.2841-0.1136-0.9659 0.7576-1.136 0.2904-0.1136 0.8144 0.2841 0.8207-0.5746 0.9217h-1.13l-0.7954-0.7576-0.6818-0.2336-1.023 0.4104-0.0505 1.919-1.086 0.8144-1.023 1.919-1.484 1.452-0.2273 0.9217-0.9091 1.174-0.3346 1.212-0.928 1.118 0.0631 2.38-0.2273 0.4041-0.4546 0.12-0.8523-0.6944-0.1705 0.1768 0.9659 0.928 0.0568 0.928 0.9659 0.6376-0.2841 1.743 0.341 1.339 0.4546 0.5808 1.648 0.8144 0.7386-0.4041 0.4609 0.101 0.1642 0.4609-0.3914 0.5492 0.5114 0.7512 1.073 0.0568 0.6881 0.9912 1.073 0.2904 0.4546-0.1768 1.08 0.6376 1.01 0.1136 0.9912 1.225 1.067-6e-3 0.3978 0.6376-0.5682 0.5808 0.625 1.219 2.052 0.7449 1.477 1.698 0.7386-0.1768 0.4104 0.2778 0.8396 1.231v0.4672l1.023 0.524 0.0568 0.6376h-0.4546l-0.4546-0.4041-0.6818 0.2904-0.1136 1.566-0.3978 0.1136-0.4546 1.048-0.1705 0.928-0.7955 0.8144-0.5114 0.2336-0.221 0.5808-1.995 1.339-0.0568 0.9849-0.625 0.1768-0.7954 1.452-1.307 0.12-1.421 1.799-1.08 0.3599-0.341 0.7449-0.9722 0.0505-0.4483 0.3031-1.869-0.1642-0.9785 0.3283-0.9091 1.004-0.2273 0.7576-1.882 0.6376-0.1642 0.5746-0.6313 0.4672-0.625 0.4672-0.3978 0.2904-0.2841-0.1136 0.0568-0.6502-0.625-0.0505-1.926 0.7639-0.2273 0.5871-0.6313-0.0126-0.8523 0.9849-1.136-0.0568-0.2841-0.2904-1.477 1.509-0.5681 0.2904-1.307 0.928-0.4546 0.7576 0.1136 0.3473-0.3978 0.4104-0.5681-0.1136-0.4546 0.2904v0.2336l0.6818 0.1136 1.307-0.1768 0.1136-0.524 1.648-1.162 0.5114-1.339 0.341-0.2336v1.105l-0.625 1.275 0.1705 2.614 0.7954 0.8144 1.25 0.2968 0.2273 0.3409 1.143 0.0568 0.846 1.919-0.6818 1.219-2.159-0.1768-0.7955 0.2904-0.7386-0.9849-0.846-0.2399-0.8586 0.2399 0.5682 0.6944-0.2841 0.2336-1.591-1.206-2.052-0.4735-2.046 0.5808-1.654-0.6439-0.5114 0.2399-0.625-0.2336-0.1705 0.928h-0.9659l-0.9659-0.7576 0.2273-0.4041-0.1705-0.524-0.9659-0.0568-0.0568 0.4672 0.341 0.2336-0.4546 0.1136-5.228-0.7702-12.02-0.9154-0.2273-0.4041 0.5618-0.7007 1.042 0.1073-0.8081-0.4546h-0.341l-0.2778 0.5682-1.086 0.8838-4.735-0.6376 0.7386-6.25 1.686-5.064 1.938-4.098 1.174-0.2526 6.464 0.6755 0.6502-0.5114-0.423-9.11-1.395-4.079 1.282-3.106 1.01-3.934-1.086-2.399-1.225-0.8207-0.524-0.7828 0.3031-0.5114 1.105-0.1705 0.6629-0.4735 1.168-4.155 1.124-1.932 0.3031-1.099-1.067-0.2273-0.6502-0.6187-1.957-0.8649-1.238-2.267-0.625-3.391 0.2147-3.34 1.269-5.297 1.023-0.625 2.879-0.6124 0.3283-0.6818-1.61-7.449-0.9975-2.128 0.5934-2.153-0.1642-1.61 0.8144-1.339 0.726-0.6818 4.401-1.913 1.837-2.589 1.964-5.342-0.2904-2.273 5.852-12.68 1.667-5.625 1.092-2.355 0.3978-4.344-0.9407-2.058-0.3978-3.005-0.5366-0.4356-2.898 0.3725-0.4483-0.6565 1.673-7.443-0.2526-5.782-0.928-5.253-0.0316-1.591 0.2968-2.368 1.604-4.041 0.4799 0.3788 0.7702-0.5304h0.7702l2.841 1.395 3.618-2.456 0.9154-0.1452 2.027 0.625h1.25z" title="La Unión"/>
	<path id="SV-US" d="m340.2 260.6 0.6818 0.5808-0.2841 0.4041 0.0568 0.2336 0.341-0.1768-0.2273 0.5808-0.7386-0.2904-0.2273 0.2336-0.625-0.4041 0.3978-0.2904-0.0568-0.4672zm-7.336-5.228 0.7891 0.2273 0.2336 0.8775 0.4546 0.3473 2.052-1.275 1.364 1.162 0.2841 1.162 1.023 0.9849 1.364-0.1136 0.8523-1.105 1.421 0.1136-0.2273 0.6944 0.625 0.928-1.648 0.0568-1.534 0.6376-1.484-0.3473-0.341 0.4041 0.5681 0.7576-0.1136 0.2904-0.7386-0.7576-0.9091-0.0568-2.557-1.339-2.046 0.0568-0.341 0.2904-1.534 0.2336-2.734-0.6376-1.25-0.8712 0.1705-1.275 0.4546-0.4609zm-30.22-2.324 0.341 0.4041-0.4546 0.2904-0.9659-0.2904 0.0568-0.2904zm-10.13-3.308 1.307 0.6944v0.928l-0.4546 0.4041-0.7386-0.4041v-0.7576l-0.341-0.4672v-0.4041h0.2273zm2.279-0.2904 1.193 0.4672 0.6881-0.3031 0.3409 0.7702 2.103 0.928 1.762-0.4672 0.8523 0.524-1.534 0.524-1.307 0.0568-0.9785 0.4672-1.01-1.799-0.9091-0.2904-1.534 0.1136-0.341-0.6944zm5.234-0.3536 0.1705 0.4041-0.2273 0.4104-0.2841 0.2904-0.5114-0.1768 0.4546-0.8144zm36.53-0.0568 1.25 0.2904v1.799l0.2841 0.7576 1.08 0.524 1.932 1.799 1.023 1.219v0.5808l0.4546 0.2904-0.4546 0.6376-1.648 0.2904-0.341 0.9849-1.364-0.0568-0.7386-1.799-1.724-1.08-1.976 1.225-0.3978-0.7828-0.5114-0.5808-0.0568-0.4609 1.597-2.646-0.2526-1.616 0.0695-1.023 0.5492-0.2147zm-26.01-0.2336 0.2841 0.6376-0.7955 0.3473-0.4546-0.4672 0.0568-0.2904zm10.82-0.6944 1.023 0.4672 0.5114 1.509 3.416 3.485 0.1136 0.4672-0.7386 0.928h-0.5114l-1.648-1.629-0.8523-0.2336-0.8523-0.7576 0.0568-0.3473-0.7386-0.2904-1.25-2.38zm13.97-88.83 1.446 0.2841 1.2-0.1705 1.155 0.9343 0.3725-0.3536 0.3914 0.2273 0.524-0.2147 1.061 0.1768 0.6944-0.9343 0.4609 0.0126 1.496 0.8018 2.582 3.403 1.263 0.3346 0.3788 0.6439 1.118 0.8459 0.5114 0.9722 1.155-0.0442 2.185 1.2 1.528-0.2147 0.9659-1.01 0.7765-0.3283 0.9849-0.0189 0.6565 0.5618 0.8965 4.805-0.7386 1.932-0.0316 1.648 0.4546 0.9975 1.572 0.8523 0.2462 0.4988-0.0189 0.6376-0.5872 0.7576-0.0821 0.6313 0.4924 2.121-0.2462 0.4356-0.3662 0.0316-1.313-1.49-0.827-0.2399-0.7449 0.322-0.1705 1.326 0.6187 2.462-1.08 3.031 0.928 0.7891 2.349 1.231 0.6881 10.13-0.4546 1.534-1.408 1.08-0.5682 0.827 0.4672 2.355-0.1768 1.326-1.118 0.4798-1.913-0.4862-0.524 0.3157-0.442 4.66 0.5934 0.4041 1.187-0.5556 1.174 0.0568 0.3662 0.625 0.3536 2.45 1.162 0.9912 0.0631 1.774-0.9533 2.267 0.4735 4.047-0.8144 1.825-0.0316 0.928 0.7765 1.162 2.191 0.9785 0.7197 0.9785 0.5997 0.1957 0.4546 0.947 0.7197 0.1515 0.423 0.9912 0.0316 2.298 0.8523 0.3283 4.237-0.1136 1.888 0.442 3.643-0.4356 0.4988 0.1894-0.2462 2.071 1.244 2.519 0.505 2.437-0.5618 0.9217-3.574 1.642-1.85 2.159 0.0189 0.5808 0.8523 1.269-0.2526 3.176 0.2526 0.7513 0.4862 0.5304 1.023 0.2147 1.212-0.5871 2.33-0.2336 1.919-0.6755 0.1136-0.5682-2.172-3.037-0.0568-1.56 1.193-4.451 0.5997-0.2526 0.5556 0.5618 0.3094-0.0253 0.4546-1.635 0.6187 0.3978 0.2399-0.8712 0.8523 0.543 1.427 0.1326 0.3157 0.2778-0.7007 0.3725 0.7007 0.221 0.5304 0.8586 2.488-0.6502 0.6565 0.6755 0.3346-0.7449 0.6818 0.1452 0.2968-0.726 0.3978-0.0695 0.7007 1.017-1.275 3.965 0.3473 0.2399 1.118-0.5114 0.8649 0.1768 0.8207 0.947 1.408 0.947 1.168 1.945-0.12 0.4546-3.207 2.759-0.4546 0.827-0.0947 1.035 0.4357 0.8775 0.928 0.8333 0.9596 0.2336 2.544-1.515 7.715 0.9343 1.351 3.081 5.083 6.559 2.286 3.542-0.1136 0.2652-0.7386-0.2336 0.1136 0.4672-0.5681 0.2904-1.023-0.6376-3.7-0.4609-1.136-0.0568-0.1136 0.4672h-0.2273l-1.023-0.524-0.9659 0.8144h-0.5114l-0.2273-0.4609-3.473-0.1136-0.5681 0.8712-0.8523-0.0568-0.341-0.4608-0.4546-0.0568-0.1136 0.4041-0.6818-0.1136-0.3978 0.7576-0.6818-0.3473-0.2273 0.7576-1.534-0.2904-0.1136 0.4672-0.2841 0.0568-0.2273-0.5808-0.625-0.0568-0.2273 0.6376h-0.3409l-0.2273-0.4041-0.6818-0.2904-3.302-0.4672-1.08-0.8712-1.25 0.5808-1.364-0.0568-7.115-1.263-10.41-0.5366-0.7386-0.4609 0.1136-0.5808 2.052-1.162 1.484-0.1136 1.023-0.6376 0.5682 0.928 0.5114 0.2336 0.1136 0.3473-0.2841 0.3473 0.3978 0.3473 0.1705-1.162-0.5114-0.3473-0.341-0.8144-0.7386-0.0568-0.5682 0.4041-0.5114-0.2336 0.7386-1.219 1.307 0.2904 0.341-0.3473-0.3978 0.1768-1.136-0.4609-0.2841-1.395-0.5114-0.4041-0.8523-0.1136-1.421-1.042-0.9091-2.38-0.0568-0.9849-0.7386-0.524v0.4104l0.3978 0.3473v0.2904l-0.2841-6e-3 -1.136-1.08v-0.2526l-0.625-0.1768 2.109 2.033 0.1136 1.509 1.08 1.566 0.5682 0.5808 1.705 0.4672 0.4546 0.5808-0.1136 0.5808-2.166 1.566-0.3978-0.0568-1.023-0.3473-0.625-0.928-2.961-0.5808-1.08-0.8712-0.3978-0.7513v-0.6948l-0.2841-0.1768v0.8712l0.3978 0.8144 1.08 1.105 2.222 1.048-0.1705 0.4672-1.648 0.2336-0.9659 0.8144-0.4546-0.2336-1.08 0.3473-3.359-0.2336-1.023 0.4041-1.023 1.275 1.882-0.8712 1.136 0.4672 1.023-0.4041 0.341 0.5682 0.4546 0.0126 0.625 0.5808 0.8523-0.5808 0.0568 0.6944 0.5682 0.2336 0.7954-0.2904 0.3978-0.6376 0.1136 0.8144-1.136 0.6376-1.136-0.1768-2.677 0.524-0.5682-0.1768-2.45 0.8712-3.87-0.0568-1.421-0.8144-1.08-1.042-2.109-3.252 0.1136-0.9849 0.8523-1.623 0.6818-0.5808 0.7386 0.0568 3.7 2.147 2.848-0.1136-1.591-0.4041-1.818 0.1768-2.159-1.623-0.1705-0.4041 0.2273-0.2336 1.421-0.3473 1.364 0.0568 0.6818-0.6944-0.9659 0.3599-3.473 0.1642-0.6818-1.913-0.9091-0.8144-2.046-2.904-4.155-3.252-0.1705-1.743-0.505-0.4672-1.774-0.1136-1.136 0.4041-0.2841 0.7576 0.2841 1.162-0.2273 1.395-1.648 2.437-1.25 0.1768-1.08-0.3473-0.2841 0.3473-1.932 0.0568-0.1136-0.6376-0.9659-0.2904-1.477-2.614-0.9659-0.6944-1.136-1.395-0.5682-0.2336-0.1136-1.048h-0.5681l-0.7955-0.6376-3.473-0.2904-0.7386-0.928-0.7386 0.1136-0.1136 0.4104-0.9091 0.0568-0.7386-0.5808h-0.7386l-0.2841 0.2904-0.2841-0.6944-0.2841-0.0568h-2.904l-0.2841-0.1768 0.0568-0.3473 1.136 0.0568 0.3978-0.4672-0.0568-0.6376-1.023-0.6376 0.0568-0.3473-0.5114 0.6944 0.6313-0.0316 0.4546 0.3031 0.1578 0.6502-1.073 0.0631-1.875 0.8144-0.5682-1.048-0.0568-0.928-0.625-0.6376-1.023-0.1136-0.7386-0.8712-0.341-1.048-0.9659-0.4672-0.1705 0.3473 0.8523 0.2336 0.9091 2.033 1.421 0.6376v0.5808l-1.136 0.4672-0.4609-0.524-0.7828-0.0695-0.4041 0.423v0.6376l0.2841 0.1136-0.2273 0.2904-1.136-0.2904 0.1136-0.8144-0.3978-0.4672h-1.648l-0.3978 0.12v-0.8775l-0.2841-0.2904-0.8523 0.524 0.3978 0.2336 0.4546-0.4672v0.928l0.5114 0.2904 0.3978-0.2336 1.023 0.2336 0.3409 0.9849 1.023 0.4041h1.193l0.5682-0.2904-1.932 2.848-1.591-0.2336-0.7954 0.1768-0.5114-0.3473-1.477-0.0568-0.5114 0.6376-0.7954 0.1136-1.534-0.928-1.818-0.2336-1.193 0.9849 0.1705 0.6944-0.5682 0.0568-1.307-0.8144-1.768-0.4041-0.7954 0.4041-0.625-0.3473 0.0568 0.4672 0.9091 0.2904 0.9659-0.4609 0.625 0.6376-0.0568 0.8144-0.9091 0.0568-0.1136 0.3473-0.625 0.2904h0.6818l0.5114-0.3473 0.341 0.4041-0.0568 1.162 0.2273 0.1136 0.4546-0.2336 0.3978-0.8144 1.193 0.928h0.7386l0.7386-0.928 0.8523-0.2336 0.7386 1.339 2.052 1.219 1.25-0.0568 0.3409-0.5808 0.6818-0.2336 0.625 0.4041 0.5114 0.9849 0.7386 0.1136 0.7386-0.6376-0.1705-0.928 1.768-0.7513 0.8523-1.275 0.4546-0.0568 0.1136 0.4672h0.3978l0.9659-0.3473-0.0568-0.2904 0.341-0.1136 1.534 0.2904 3.359-1.452h0.7386l1.25 1.219 1.421 0.1768 0.5682 0.8144-0.1136 0.8712 0.5114-0.0568 1.023 0.8144 1.421 1.799 1.136 0.8144 2.62 3.308-0.341 0.4041-0.4546-0.0694-1.08-0.7449-0.7954-0.1136h-1.477l-2.393 0.524-1.875-0.8712-0.5114-0.9849-0.6818-0.2904-1.364 0.1136-1.364 0.928 2.45-0.8144 2.046 1.919 1.364 0.524h2.791l1.25 0.7576 1.995 0.3473 2.728-0.2336 1.307 0.928 0.4546 0.7576 1.023 0.4104 0.4546 0.7576 1.364-0.4041 1.25 0.2904 0.3409 0.3473 1.705-0.1136 0.5681 0.524h0.5114l0.6818 0.6944-0.1705 0.2336-0.5114-0.1768 0.1136 0.5808 1.648 2.033 0.7386-0.1136 0.0568-0.524-0.2841-0.2336 0.2273-0.3473 1.989-0.6376 0.341 2.09 0.2273 0.2904 0.5114-0.1136v0.4672h-2.791l-6.767-2.38-11.32-2.38-10.13-2.494-15.65-2.961-8.535-0.928-6.887-2.147-0.1073-1.023-0.6565-0.8396-3.731-1.238-1.591-0.9091-1.307-1.345 0.2652-1.313 0.8838-0.9975 1.187-0.5556 1.433-0.2084 1.642-1.433 2.279-1.048 3.245-3.258 1.168-0.7639 1.294-2.652 1.402-1.679 2.696-1.073 0.2462-0.6881-0.1578-1.099-1.332-0.8396-0.6123-1.238-0.1136-2.494 3.176-6.483 3.176-4.767 2.254-5.972 1.452-1.244 0.928-1.515 0.1515-4.641 0.8901-2.753 0.4167-4.104 0.7513-1.566-0.442-2.664 0.442-1.402 1.124-0.8965 1.724 0.1578 0.606-0.3536 2.001-4.047 0.8712-0.846 0.6565-1.661 0.928-0.9785 3.971-1.181 4.464-0.2526 2.254-0.7197 0.4988-0.4041 1.238-3.226 1.951-1.446 0.7449-2.753 2.02-2.481 1.326-1.023 1.585-0.7386 1.231-1.755 1.458-0.7955 2.993-0.8838 1.061-0.7765 1.793-3.119z" title="Usulután"/>
</svg>
